<?xml version="1.0" encoding="UTF-8" standalone="no"?>
<!-- Created with Inkscape (http://www.inkscape.org/) -->

<svg
   xmlns:dc="http://purl.org/dc/elements/1.1/"
   xmlns:cc="http://creativecommons.org/ns#"
   xmlns:rdf="http://www.w3.org/1999/02/22-rdf-syntax-ns#"
   xmlns:svg="http://www.w3.org/2000/svg"
   xmlns="http://www.w3.org/2000/svg"
   xmlns:sodipodi="http://sodipodi.sourceforge.net/DTD/sodipodi-0.dtd"
   xmlns:inkscape="http://www.inkscape.org/namespaces/inkscape"
   width="16"
   height="16"
   id="svg4615"
   version="1.1"
   inkscape:version="0.91 r13725"
   sodipodi:docname="logo-16.svg"
   inkscape:export-filename="/Users/ruby/act/plugins/last-log-for-confluence/src/main/resources/images/logo-16.png"
   inkscape:export-xdpi="90"
   inkscape:export-ydpi="90">
  <defs
     id="defs4617" />
  <sodipodi:namedview
     id="base"
     pagecolor="#ffffff"
     bordercolor="#666666"
     borderopacity="1.0"
     inkscape:pageopacity="0.0"
     inkscape:pageshadow="2"
     inkscape:zoom="32"
     inkscape:cx="3.0404971"
     inkscape:cy="17.772936"
     inkscape:document-units="px"
     inkscape:current-layer="g3855"
     showgrid="true"
     showguides="true"
     inkscape:guide-bbox="true"
     inkscape:window-width="1916"
     inkscape:window-height="1035"
     inkscape:window-x="1622"
     inkscape:window-y="411"
     inkscape:window-maximized="0"
     inkscape:snap-to-guides="false"
     inkscape:snap-grids="false">
    <sodipodi:guide
       orientation="0,1"
       position="-1.4268102,15.52563"
       id="guide3846" />
    <inkscape:grid
       type="xygrid"
       id="grid3848"
       empspacing="1"
       visible="true"
       enabled="true"
       snapvisiblegridlinesonly="true" />
  </sodipodi:namedview>
  <metadata
     id="metadata4620">
    <rdf:RDF>
      <cc:Work
         rdf:about="">
        <dc:format>image/svg+xml</dc:format>
        <dc:type
           rdf:resource="http://purl.org/dc/dcmitype/StillImage" />
        <dc:title></dc:title>
      </cc:Work>
    </rdf:RDF>
  </metadata>
  <g
     inkscape:label="Layer 1"
     inkscape:groupmode="layer"
     id="layer1"
     transform="translate(0,-1036.3622)">
    <g
       id="g3927"
       transform="matrix(1,0,0,0.98181897,0,16.588892)">
      <path
         inkscape:connector-curvature="0"
         id="path4744"
         style="fill:#a4a9b1;fill-opacity:1;fill-rule:nonzero;stroke:none"
         d="m 0,1040.6942 2,0 0,-2.037 -2,0 0,2.037 z" />
      <path
         inkscape:connector-curvature="0"
         id="path4746"
         style="fill:#a4a9b1;fill-opacity:1;fill-rule:nonzero;stroke:none"
         d="m 0,1044.259 2,0 0,-2.037 -2,0 0,2.037 z" />
      <path
         inkscape:connector-curvature="0"
         id="path4748"
         style="fill:#a4a9b1;fill-opacity:1;fill-rule:nonzero;stroke:none"
         d="m 0,1047.8238 2,0 0,-2.037 -2,0 0,2.037 z" />
      <path
         inkscape:connector-curvature="0"
         id="path4750"
         style="fill:#a4a9b1;fill-opacity:1;fill-rule:nonzero;stroke:none"
         d="m 0,1051.3886 2,0 0,-2.037 -2,0 0,2.037 z" />
      <path
         inkscape:connector-curvature="0"
         id="path4752"
         style="fill:#a4a9b1;fill-opacity:1;fill-rule:nonzero;stroke:none"
         d="m 0,1054.9534 16,0 0,-2.037 -16,0 0,2.037 z" />
      <g
         id="g3855">
        <g
           transform="translate(0,-1.0185161)"
           id="g3850" />
        <rect
           style="opacity:0.99599998;fill:none;fill-opacity:1;fill-rule:nonzero;stroke:#2c6aa8;stroke-width:0.52019113;stroke-linecap:square;stroke-linejoin:miter;stroke-miterlimit:35;stroke-dasharray:none;stroke-opacity:1"
           id="rect11723"
           width="7.4808412"
           height="0.37611774"
           x="2.1217172"
           y="1041.0885"
           ry="0.12769419"
           transform="matrix(0.99999111,-0.0042161,0.00205339,0.99999789,0,0)" />
        <rect
           style="opacity:0.99599998;fill:none;fill-opacity:1;fill-rule:nonzero;stroke:#2c6aa8;stroke-width:0.47108126;stroke-linecap:square;stroke-linejoin:miter;stroke-miterlimit:35;stroke-dasharray:none;stroke-opacity:1"
           id="rect11765"
           width="5.529551"
           height="0.48197126"
           x="4.2352242"
           y="1043.0326"
           ry="0.14141746" />
        <rect
           style="opacity:0.99599998;fill:none;fill-opacity:1;fill-rule:nonzero;stroke:#2c6aa8;stroke-width:0.5511747;stroke-linecap:square;stroke-linejoin:miter;stroke-miterlimit:35;stroke-dasharray:none;stroke-opacity:1"
           id="rect11787"
           width="5.4498453"
           height="0.43386695"
           x="4.2750773"
           y="1045.0778"
           ry="0.12044957" />
        <rect
           style="opacity:0.99599998;fill:none;fill-opacity:1;fill-rule:nonzero;stroke:#2c6aa8;stroke-width:0.49497327;stroke-linecap:square;stroke-linejoin:miter;stroke-miterlimit:35;stroke-dasharray:none;stroke-opacity:1"
           id="rect11789"
           width="3.5060995"
           height="0.45854291"
           x="4.2474866"
           y="1047.118"
           ry="0.16367626" />
        <rect
           style="opacity:0.99599998;fill:none;fill-opacity:1;fill-rule:nonzero;stroke:#2c6aa8;stroke-width:0.59549695;stroke-linecap:square;stroke-linejoin:miter;stroke-miterlimit:35;stroke-dasharray:none;stroke-opacity:1"
           id="rect11791"
           width="7.4045029"
           height="0.32616061"
           x="4.2972751"
           y="1049.2375"
           ry="0.1630803" />
      </g>
    </g>
  </g>
</svg>
