<?xml version="1.0" encoding="UTF-8" standalone="no"?>
<!-- Created with Inkscape (http://www.inkscape.org/) -->

<svg
   xmlns:osb="http://www.openswatchbook.org/uri/2009/osb"
   xmlns:dc="http://purl.org/dc/elements/1.1/"
   xmlns:cc="http://creativecommons.org/ns#"
   xmlns:rdf="http://www.w3.org/1999/02/22-rdf-syntax-ns#"
   xmlns:svg="http://www.w3.org/2000/svg"
   xmlns="http://www.w3.org/2000/svg"
   xmlns:xlink="http://www.w3.org/1999/xlink"
   xmlns:sodipodi="http://sodipodi.sourceforge.net/DTD/sodipodi-0.dtd"
   xmlns:inkscape="http://www.inkscape.org/namespaces/inkscape"
   width="144"
   height="144"
   id="svg4615"
   version="1.1"
   inkscape:version="0.91 r13725"
   sodipodi:docname="logo-144.svg"
   inkscape:export-filename="/home/klenzel/projects/ACT/addons/commercial/issueprinter/files/logo.png"
   inkscape:export-xdpi="90"
   inkscape:export-ydpi="90">
  <defs
     id="defs4617">
    <linearGradient
       id="linearGradient4279"
       osb:paint="solid">
      <stop
         style="stop-color:#000000;stop-opacity:1;"
         offset="0"
         id="stop4281" />
    </linearGradient>
  </defs>
  <sodipodi:namedview
     id="base"
     pagecolor="#ffffff"
     bordercolor="#666666"
     borderopacity="1.0"
     inkscape:pageopacity="0.0"
     inkscape:pageshadow="2"
     inkscape:zoom="1.4142136"
     inkscape:cx="230.07601"
     inkscape:cy="-87.4164"
     inkscape:document-units="px"
     inkscape:current-layer="g3978"
     showgrid="false"
     showguides="true"
     inkscape:guide-bbox="true"
     inkscape:window-width="1916"
     inkscape:window-height="1035"
     inkscape:window-x="1393"
     inkscape:window-y="123"
     inkscape:window-maximized="0" />
  <metadata
     id="metadata4620">
    <rdf:RDF>
      <cc:Work
         rdf:about="">
        <dc:format>image/svg+xml</dc:format>
        <dc:type
           rdf:resource="http://purl.org/dc/dcmitype/StillImage" />
        <dc:title></dc:title>
      </cc:Work>
    </rdf:RDF>
  </metadata>
  <g
     inkscape:label="Layer 1"
     inkscape:groupmode="layer"
     id="layer1"
     transform="translate(0,-908.36218)">
    <g
       id="g3927"
       transform="matrix(1,0,0,0.98181897,0,16.588892)">
      <rect
         style="fill:#ffffff;fill-opacity:1;stroke:none"
         id="rect3936"
         width="144"
         height="146.66655"
         x="0"
         y="908.28687"
         ry="0" />
      <rect
         style="fill:#ffffff;fill-opacity:1;stroke:none"
         id="rect5416-6"
         width="72"
         height="73.333275"
         x="0"
         y="981.62018" />
      <g
         id="g3978"
         transform="translate(0,4.0740571)">
        <path
           style="fill:#ffffff;fill-opacity:1;stroke:#2c6aa8;stroke-width:4.03686570999999983;stroke-miterlimit:4;stroke-opacity:1;stroke-dasharray:none"
           d="m 38.8,944.95353 98.4,0 c 2.6592,0 4.8,2.2713 4.8,5.0926 l 0,50.92597 c 0,2.8214 -2.1408,5.0925 -4.8,5.0925 l -13.2,0 0,-26.48147 c 0,-2.40064 -2.73725,-6.1111 -5,-6.1111 l -62,0 c -2.262793,0 -4.963743,3.71074 -5,6.1111 l 0,26.48147 -13.2,0 c -2.6592,0 -4.8,-2.2711 -4.8,-5.0925 l 0,-50.92597 c 0,-2.8213 2.1408,-5.0926 4.8,-5.0926 z"
           id="rect3072"
           inkscape:connector-curvature="0"
           sodipodi:nodetypes="ssssscsssscssss" />
        <path
           d="m 4.495e-6,924.58316 144.000005505,0 0,-14.25925 -144.000005505,0 0,14.25925 z"
           style="fill:#a4a9b1;fill-opacity:1;fill-rule:nonzero;stroke:none"
           id="path4744"
           inkscape:connector-curvature="0" />
        <path
           d="m 4.495e-6,955.1387 144.000005505,0 0,-14.25925 -144.000005505,0 0,14.25925 z"
           style="fill:#a4a9b1;fill-opacity:1;fill-rule:nonzero;stroke:none"
           id="path4746"
           inkscape:connector-curvature="0" />
        <path
           d="m 4.495e-6,985.69423 144.000005505,0 0,-14.25924 -144.000005505,0 0,14.25924 z"
           style="fill:#a4a9b1;fill-opacity:1;fill-rule:nonzero;stroke:none"
           id="path4748"
           inkscape:connector-curvature="0" />
        <path
           d="m 4.495e-6,1016.2498 144.000005505,0 0,-14.2593 -144.000005505,0 0,14.2593 z"
           style="fill:#a4a9b1;fill-opacity:1;fill-rule:nonzero;stroke:none"
           id="path4750"
           inkscape:connector-curvature="0" />
        <path
           d="m 0,1046.8053 144.00001,0 0,-14.2592 -144.00001,0 0,14.2592 z"
           style="fill:#a4a9b1;fill-opacity:1;fill-rule:nonzero;stroke:none"
           id="path4752"
           inkscape:connector-curvature="0" />
        <rect
           y="909.30536"
           x="24"
           height="123.24064"
           width="120"
           id="rect5416-34-2"
           style="fill:#ffffff;fill-opacity:1;stroke:none" />
        <path
           id="path3759"
           style="fill:#2c6aa8;fill-opacity:1;stroke:#2c6aa8;stroke-width:1.54939353;stroke-linecap:butt;stroke-linejoin:miter;stroke-miterlimit:4;stroke-dasharray:none;stroke-opacity:1"
           d="m 38.233584,939.85626 0,4.62329 66.463316,0 0,-4.62329 z"
           inkscape:connector-curvature="0"
           sodipodi:nodetypes="ccccc" />
        <image
           y="952.41016"
           x="37.578617"
           id="image4306"
           xlink:href="data:image/png;base64,iVBORw0KGgoAAAANSUhEUgAAAEUAAAAHCAYAAABeHYBOAAAABHNCSVQICAgIfAhkiAAAAD9JREFU
OI1j1Mla8Z9hFMBBbpIKG9NAO2IwgtFAwQJGAwULGA0ULGA0ULAAlgRnNYXfvxgZB9ohgwWkmxj+
BgCUXAftEfyEhgAAAABJRU5ErkJggg==
"
           style="image-rendering:optimizeSpeed"
           preserveAspectRatio="none"
           height="7.1296239"
           width="59.141106" />
        <image
           y="965.52356"
           x="37.453617"
           id="image4317"
           xlink:href="data:image/png;base64,iVBORw0KGgoAAAANSUhEUgAAAEUAAAAHCAYAAABeHYBOAAAABHNCSVQICAgIfAhkiAAAAD9JREFU
OI1j1Mla8Z9hFMBBbpIKG9NAO2IwgtFAwQJGAwULGA0ULGA0ULAAlgRnNYXfvxgZB9ohgwWkmxj+
BgCUXAftEfyEhgAAAABJRU5ErkJggg==
"
           style="image-rendering:optimizeSpeed"
           preserveAspectRatio="none"
           height="7.1296239"
           width="48.487137" />
        <image
           y="979.78284"
           x="37.453617"
           id="image4328"
           xlink:href="data:image/png;base64,iVBORw0KGgoAAAANSUhEUgAAAEUAAAAHCAYAAABeHYBOAAAABHNCSVQICAgIfAhkiAAAAD9JREFU
OI1j1Mla8Z9hFMBBbpIKG9NAO2IwgtFAwQJGAwULGA0ULGA0ULAAlgRnNYXfvxgZB9ohgwWkmxj+
BgCUXAftEfyEhgAAAABJRU5ErkJggg==
"
           style="image-rendering:optimizeSpeed"
           preserveAspectRatio="none"
           height="7.1296239"
           width="55.006729" />
        <rect
           style="opacity:0.996;fill:none;fill-opacity:1;fill-rule:nonzero;stroke:#2c6aa8;stroke-width:0.443046;stroke-linejoin:miter;stroke-miterlimit:35;stroke-dasharray:none;stroke-opacity:1"
           id="rect4333"
           width="89.2071"
           height="96.689537"
           x="31.166832"
           y="914.50989"
           ry="22.815613" />
      </g>
    </g>
  </g>
</svg>
