<?xml version="1.0" encoding="UTF-8" standalone="no"?>
<!-- Created with Inkscape (http://www.inkscape.org/) -->

<svg
   xmlns:dc="http://purl.org/dc/elements/1.1/"
   xmlns:cc="http://creativecommons.org/ns#"
   xmlns:rdf="http://www.w3.org/1999/02/22-rdf-syntax-ns#"
   xmlns:svg="http://www.w3.org/2000/svg"
   xmlns="http://www.w3.org/2000/svg"
   xmlns:sodipodi="http://sodipodi.sourceforge.net/DTD/sodipodi-0.dtd"
   xmlns:inkscape="http://www.inkscape.org/namespaces/inkscape"
   width="72"
   height="72"
   id="svg4615"
   version="1.1"
   inkscape:version="0.91 r13725"
   sodipodi:docname="logo-72.svg"
   inkscape:export-filename="/home/klenzel/projects/ACT/addons/commercial/issueprinter/files/logo.png"
   inkscape:export-xdpi="90"
   inkscape:export-ydpi="90">
  <defs
     id="defs4617" />
  <sodipodi:namedview
     id="base"
     pagecolor="#ffffff"
     bordercolor="#666666"
     borderopacity="1.0"
     inkscape:pageopacity="0.0"
     inkscape:pageshadow="2"
     inkscape:zoom="5.12"
     inkscape:cx="23.915023"
     inkscape:cy="-0.331588"
     inkscape:document-units="px"
     inkscape:current-layer="g3978"
     showgrid="false"
     showguides="false"
     inkscape:guide-bbox="true"
     inkscape:window-width="2560"
     inkscape:window-height="1396"
     inkscape:window-x="1280"
     inkscape:window-y="0"
     inkscape:window-maximized="1">
    <inkscape:grid
       type="xygrid"
       id="grid4323" />
  </sodipodi:namedview>
  <metadata
     id="metadata4620">
    <rdf:RDF>
      <cc:Work
         rdf:about="">
        <dc:format>image/svg+xml</dc:format>
        <dc:type
           rdf:resource="http://purl.org/dc/dcmitype/StillImage" />
        <dc:title></dc:title>
      </cc:Work>
    </rdf:RDF>
  </metadata>
  <g
     inkscape:label="Layer 1"
     inkscape:groupmode="layer"
     id="layer1"
     transform="translate(0,-980.36218)">
    <g
       id="g3927"
       transform="matrix(1,0,0,0.98181897,0,16.588892)">
      <rect
         style="fill:#ffffff;fill-opacity:1;stroke:none"
         id="rect3936"
         width="71.999992"
         height="73.333267"
         x="1.110223e-16"
         y="981.62018"
         ry="0" />
      <rect
         style="fill:#ffffff;fill-opacity:1;stroke:none"
         id="rect5416-6"
         width="35.999996"
         height="36.666634"
         x="1.110223e-16"
         y="1018.2868" />
      <g
         id="g3978"
         transform="translate(0,4.0740571)">
        <path
           d="M 2.2474998e-6,987.73128 72,987.73128 l 0,-7.12962 -71.9999977525001,0 0,7.12962 z"
           style="fill:#a4a9b1;fill-opacity:1;fill-rule:nonzero;stroke:none"
           id="path4744"
           inkscape:connector-curvature="0" />
        <path
           d="M 2.2474998e-6,1003.0091 72,1003.0091 l 0,-7.12967 -71.9999977525001,0 0,7.12967 z"
           style="fill:#a4a9b1;fill-opacity:1;fill-rule:nonzero;stroke:none"
           id="path4746"
           inkscape:connector-curvature="0" />
        <path
           d="M 2.2474998e-6,1018.2868 72,1018.2868 l 0,-7.1296 -71.9999977525001,0 0,7.1296 z"
           style="fill:#a4a9b1;fill-opacity:1;fill-rule:nonzero;stroke:none"
           id="path4748"
           inkscape:connector-curvature="0" />
        <path
           d="M 2.2474998e-6,1033.5646 72,1033.5646 l 0,-7.1297 -71.9999977525001,0 0,7.1297 z"
           style="fill:#a4a9b1;fill-opacity:1;fill-rule:nonzero;stroke:none"
           id="path4750"
           inkscape:connector-curvature="0" />
        <path
           d="m 0,1048.8423 72,0 0,-7.1296 -72,0 0,7.1296 z"
           style="fill:#a4a9b1;fill-opacity:1;fill-rule:nonzero;stroke:none"
           id="path4752"
           inkscape:connector-curvature="0" />
        <rect
           y="980.09241"
           x="11.999999"
           height="61.620316"
           width="59.999996"
           id="rect5416-34-2"
           style="fill:#ffffff;fill-opacity:1;stroke:none" />
        <rect
           style="fill:none;stroke:#2c6aa8;stroke-width:1.00519049;stroke-opacity:1"
           id="rect4220"
           width="42.994808"
           height="50.50082"
           x="18.502596"
           y="981.54266"
           rx="1.3113593"
           ry="1.9688907" />
        <rect
           style="fill:#2c6aa8;fill-opacity:1;stroke:none;stroke-width:33.15824509;stroke-linecap:butt;stroke-linejoin:round;stroke-miterlimit:0;stroke-dasharray:none;stroke-opacity:1"
           id="rect4222"
           width="32"
           height="4.9673014"
           x="21"
           y="-991.80536"
           rx="2.5383277"
           ry="0"
           transform="scale(1,-1)" />
        <rect
           transform="scale(1,-1)"
           ry="0"
           rx="0"
           y="-999.95349"
           x="21"
           height="4.9673014"
           width="28"
           id="rect4315"
           style="fill:#2c6aa8;fill-opacity:1;stroke:none;stroke-width:33.15824509;stroke-linecap:butt;stroke-linejoin:round;stroke-miterlimit:0;stroke-dasharray:none;stroke-opacity:1" />
        <rect
           style="fill:#2c6aa8;fill-opacity:1;stroke:none;stroke-width:33.15824509;stroke-linecap:butt;stroke-linejoin:round;stroke-miterlimit:0;stroke-dasharray:none;stroke-opacity:1"
           id="rect4317"
           width="24"
           height="4.9673014"
           x="21"
           y="-1017.2067"
           rx="0"
           ry="0"
           transform="scale(1,-1)" />
        <rect
           transform="scale(1,-1)"
           ry="0"
           rx="0"
           y="-1008.9974"
           x="21"
           height="4.9673014"
           width="28"
           id="rect4319"
           style="fill:#2c6aa8;fill-opacity:1;stroke:none;stroke-width:33.15824509;stroke-linecap:butt;stroke-linejoin:round;stroke-miterlimit:0;stroke-dasharray:none;stroke-opacity:1" />
        <rect
           style="fill:#2c6aa8;fill-opacity:1;stroke:none;stroke-width:33.15824509;stroke-linecap:butt;stroke-linejoin:round;stroke-miterlimit:0;stroke-dasharray:none;stroke-opacity:1"
           id="rect4321"
           width="32"
           height="4.9673014"
           x="21"
           y="-1025.4164"
           rx="0"
           ry="0"
           transform="scale(1,-1)" />
      </g>
    </g>
  </g>
</svg>
